Device 113x
XMPProtocol True

Empty Database


Power	MOD_SIG	18 00027100FF6200000012000000480101A805EC06FE080F09210A320B430C550D660E780F89109B11AC12BD13CF14E015F265900002000D000200100005000500050008001100020010000100020001001000010001007F0002000D000200100005000500050008001100020007000A00020001001000010001007F

1	MOD_SIG	18 00027100FF6200000012000000480101A805EC06FE080F09210A320B430C550D660E780F89109B11AC12BD13CF14E015F265900002000D00020010000500050005000800110002000E000100020001000200010001007F0002000D000200100005000500050008001100020005000A00020001000200010001007F

2	MOD_SIG	18 00027100FF6200000012000000480101A805EC06FE080F09210A320B430C550D660E780F89109B11AC12BD13CF14E015F265900002000D00020010000500050005000800110002000D000100020001000300010001007F0002000D000200100005000500050008001100020004000A00020001000300010001007F

3	MOD_SIG	18 00027100FF6200000012000000480101A805EC06FE080F09210A320B430C550D660E780F89109B11AC12BD13CF14E015F265900002000D00020010000500050005000800110002000C000100020001000400010001007F0002000D000200100005000500050008001100020003000A00020001000400010001007F

4	MOD_SIG	18 00027100FF6200000012000000480101A805EC06FE080F09210A320B430C550D660E780F89109B11AC12BD13CF14E015F265900002000D00020010000500050005000800110002000B000100020001000500010001007F0002000D000200100005000500050008001100020002000A00020001000500010001007F

5	MOD_SIG	18 00027100FF6200000012000000480101A805EC06FE080F09210A320B430C550D660E780F89109B11AC12BD13CF14E015F265900002000D00020010000500050005000800110002000A000100020001000600010001007F0002000D000200100005000500050008001100020001000A00020001000600010001007F

6	MOD_SIG	18 00027100FF6200000012000000480101A805EC06FE080F09210A320B430C550D660E780F89109B11AC12BD13CF14E015F265900002000D000200100005000500050008001100020009000100020001000700010001007F0002000D000200100005000500050008001100020010000A00020001000700010001007F

7	MOD_SIG	18 00027100FF6200000012000000480101A805EC06FE080F09210A320B430C550D660E780F89109B11AC12BD13CF14E015F265900002000D000200100005000500050008001100020008000100020001000800010001007F0002000D00020010000500050005000800110002000F000A00020001000800010001007F

8	MOD_SIG	18 00027100FF6200000012000000480101A805EC06FE080F09210A320B430C550D660E780F89109B11AC12BD13CF14E015F265900002000D000200100005000500050008001100020007000100020001000900010001007F0002000D00020010000500050005000800110002000E000A00020001000900010001007F

9	MOD_SIG	18 00027100FF6200000012000000480101A805EC06FE080F09210A320B430C550D660E780F89109B11AC12BD13CF14E015F265900002000D000200100005000500050008001100020006000100020001000A00010001007F0002000D00020010000500050005000800110002000D000A00020001000A00010001007F

0	MOD_SIG	18 00027100FF6200000012000000480101A805EC06FE080F09210A320B430C550D660E780F89109B11AC12BD13CF14E015F265900002000D00020010000500050005000800110002000F000100020001000100010001007F0002000D000200100005000500050008001100020006000A00020001000100010001007F

Mute	MOD_SIG	18 00027100FF6200000012000000480101A805EC06FE080F09210A320B430C550D660E780F89109B11AC12BD13CF14E015F265900002000D000200100005000500050008001100020003000100020001000D00010001007F0002000D00020010000500050005000800110002000A000A00020001000D00010001007F

Vol+	MOD_SIG	18 00027100FF6200000012000000480101A805EC06FE080F09210A320B430C550D660E780F89109B11AC12BD13CF14E015F265900002000D000200100005000500050008001100020004000100020009000400010001007F0002000D00020010000500050005000800110002000B000A00020009000400010001007F

Vol-	MOD_SIG	18 00027100FF6200000012000000480101A805EC06FE080F09210A320B430C550D660E780F89109B11AC12BD13CF14E015F265900002000D000200100005000500050008001100020003000100020009000500010001007F0002000D00020010000500050005000800110002000A000A00020009000500010001007F

Channel+	MOD_SIG	18 00027100FF6200000012000000480101A805EC06FE080F09210A320B430C550D660E780F89109B11AC12BD13CF14E015F265900002000D000200100005000500050008001100020001000100020009000700010001007F0002000D000200100005000500050008001100020008000A00020009000700010001007F

Channel-	MOD_SIG	18 00027100FF6200000012000000480101A805EC06FE080F09210A320B430C550D660E780F89109B11AC12BD13CF14E015F265900002000D000200100005000500050008001100020002000100020009000600010001007F0002000D000200100005000500050008001100020009000A00020009000600010001007F

TV_Guide	MOD_SIG	18 00027100FF6200000012000000480101A805EC06FE080F09210A320B430C550D660E780F89109B11AC12BD13CF14E015F265900002000D000200100005000500050008001100020006000100020003000800010001007F0002000D00020010000500050005000800110002000D000A00020003000800010001007F

Info	MOD_SIG	18 00027100FF6200000012000000480101A805EC06FE080F09210A320B430C550D660E780F89109B11AC12BD13CF14E015F265900002000D000200100005000500050008001100020008000100020009001000010001007F0002000D00020010000500050005000800110002000F000A00020009001000010001007F

Menu	MOD_SIG	18 00027100FF6200000012000000480101A805EC06FE080F09210A320B430C550D660E780F89109B11AC12BD13CF14E015F265900002000D000200100005000500050008001100020008000100020003000600010001007F0002000D00020010000500050005000800110002000F000A00020003000600010001007F

Ok	MOD_SIG	18 00027100FF6200000012000000480101A805EC06FE080F09210A320B430C550D660E780F89109B11AC12BD13CF14E015F265900002000D00020010000500050005000800110002000C000100020009000C00010001007F0002000D000200100005000500050008001100020003000A00020009000C00010001007F

tv	MOD_SIG	18 00027100FF6200000012000000480101A805EC06FE080F09210A320B430C550D660E780F89109B11AC12BD13CF14E015F265900002000D00020010000500050005000800110002000A000100020006000100010001007F0002000D000200100005000500050008001100020001000A00020006000100010001007F

alt	MOD_SIG	18 00027100FF6200000012000000480101A805EC06FE080F09210A320B430C550D660E780F89109B11AC12BD13CF14E015F265900002000D000200100005000500050008001100020009000100020006000200010001007F0002000D000200100005000500050008001100020010000A00020006000200010001007F

language	MOD_SIG	18 00027100FF6200000012000000480101A805EC06FE080F09210A320B430C550D660E780F89109B11AC12BD13CF14E015F265900002000D000200100005000500050008001100020008000100020006000300010001007F0002000D00020010000500050005000800110002000F000A00020006000300010001007F

exit	MOD_SIG	18 00027100FF6200000012000000480101A805EC06FE080F09210A320B430C550D660E780F89109B11AC12BD13CF14E015F265900002000D000200100005000500050008001100020009000100020009000F00010001007F0002000D000200100005000500050008001100020010000A00020009000F00010001007F

red	MOD_SIG	18 00027100FF6200000012000000480101A805EC06FE080F09210A320B430C550D660E780F89109B11AC12BD13CF14E015F265900002000D00020010000500050005000800110002000B000100020005000100010001007F0002000D000200100005000500050008001100020002000A00020005000100010001007F

blue	MOD_SIG	18 00027100FF6200000012000000480101A805EC06FE080F09210A320B430C550D660E780F89109B11AC12BD13CF14E015F265900002000D00020010000500050005000800110002000A000100020005000200010001007F0002000D000200100005000500050008001100020001000A00020005000200010001007F

white	MOD_SIG	18 00027100FF6200000012000000480101A805EC06FE080F09210A320B430C550D660E780F89109B11AC12BD13CF14E015F265900002000D000200100005000500050008001100020009000100020005000300010001007F0002000D000200100005000500050008001100020010000A00020005000300010001007F

yellow	MOD_SIG	18 00027100FF6200000012000000480101A805EC06FE080F09210A320B430C550D660E780F89109B11AC12BD13CF14E015F265900002000D000200100005000500050008001100020008000100020005000400010001007F0002000D00020010000500050005000800110002000F000A00020005000400010001007F

green	MOD_SIG	18 00027100FF6200000012000000480101A805EC06FE080F09210A320B430C550D660E780F89109B11AC12BD13CF14E015F265900002000D000200100005000500050008001100020007000100020005000500010001007F0002000D00020010000500050005000800110002000E000A00020005000500010001007F

help	MOD_SIG	18 00027100FF6200000012000000480101A805EC06FE080F09210A320B430C550D660E780F89109B11AC12BD13CF14E015F265900002000D000200100005000500050008001100020007000100020006000400010001007F0002000D00020010000500050005000800110002000E000A00020006000400010001007F
