Device hd_zapper
XMPProtocol True

Empty Database


Power	MOD_SIG	18 00027100FF6200000012000000480101A805EC06FE080F09210A320B430C550D660E780F89109B11AC12BD13CF14E015F265900002000900050010000500050005000900110002000D000100050001001000010001007F00020009000500100005000500050009001100020004000A00050001001000010001007F

Profile	MOD_SIG	18 00027100FF6200000012000000480101A805EC06FE080F09210A320B430C550D660E780F89109B11AC12BD13CF14E015F265900002000900050010000500050005000900110002000B000100050002000100010001007F00020009000500100005000500050009001100020002000A00050002000100010001007F

TV	MOD_SIG	18 00027100FF6200000012000000480101A805EC06FE080F09210A320B430C550D660E780F89109B11AC12BD13CF14E015F2659000020009000500100005000500050009001100020007000100050006000100010001007F0002000900050010000500050005000900110002000E000A00050006000100010001007F

TV_Guide	MOD_SIG	18 00027100FF6200000012000000480101A805EC06FE080F09210A320B430C550D660E780F89109B11AC12BD13CF14E015F2659000020009000500100005000500050009001100020003000100050003000800010001007F0002000900050010000500050005000900110002000A000A00050003000800010001007F

Search	MOD_SIG	18 00027100FF6200000012000000480101A805EC06FE080F09210A320B430C550D660E780F89109B11AC12BD13CF14E015F2659000020009000500100005000500050009001100020007000100050007001000010001007F0002000900050010000500050005000900110002000E000A00050007001000010001007F

Menu	MOD_SIG	18 00027100FF6200000012000000480101A805EC06FE080F09210A320B430C550D660E780F89109B11AC12BD13CF14E015F2659000020009000500100005000500050009001100020005000100050003000600010001007F0002000900050010000500050005000900110002000C000A00050003000600010001007F

Backup	MOD_SIG	18 00027100FF6200000012000000480101A805EC06FE080F09210A320B430C550D660E780F89109B11AC12BD13CF14E015F2659000020009000500100005000500050009001100020006000100050009000F00010001007F0002000900050010000500050005000900110002000D000A00050009000F00010001007F

Up	MOD_SIG	18 00027100FF6200000012000000480101A805EC06FE080F09210A320B430C550D660E780F89109B11AC12BD13CF14E015F2659000020009000500100005000500050009001100020007000100050009000E00010001007F0002000900050010000500050005000900110002000E000A00050009000E00010001007F

Down	MOD_SIG	18 00027100FF6200000012000000480101A805EC06FE080F09210A320B430C550D660E780F89109B11AC12BD13CF14E015F265900002000900050010000500050005000900110002000D000100050009000800010001007F00020009000500100005000500050009001100020004000A00050009000800010001007F

Right	MOD_SIG	18 00027100FF6200000012000000480101A805EC06FE080F09210A320B430C550D660E780F89109B11AC12BD13CF14E015F265900002000900050010000500050005000900110002000C000100050009000900010001007F00020009000500100005000500050009001100020003000A00050009000900010001007F

Left	MOD_SIG	18 00027100FF6200000012000000480101A805EC06FE080F09210A320B430C550D660E780F89109B11AC12BD13CF14E015F2659000020009000500100005000500050009001100020008000100050009000D00010001007F0002000900050010000500050005000900110002000F000A00050009000D00010001007F

Channel+	MOD_SIG	18 00027100FF6200000012000000480101A805EC06FE080F09210A320B430C550D660E780F89109B11AC12BD13CF14E015F265900002000900050010000500050005000900110002000E000100050009000700010001007F00020009000500100005000500050009001100020005000A00050009000700010001007F

Channel-	MOD_SIG	18 00027100FF6200000012000000480101A805EC06FE080F09210A320B430C550D660E780F89109B11AC12BD13CF14E015F265900002000900050010000500050005000900110002000F000100050009000600010001007F00020009000500100005000500050009001100020006000A00050009000600010001007F

Ok	MOD_SIG	18 00027100FF6200000012000000480101A805EC06FE080F09210A320B430C550D660E780F89109B11AC12BD13CF14E015F2659000020009000500100005000500050009001100020009000100050009000C00010001007F00020009000500100005000500050009001100020010000A00050009000C00010001007F

Vol+	MOD_SIG	18 00027100FF6200000012000000480101A805EC06FE080F09210A320B430C550D660E780F89109B11AC12BD13CF14E015F2659000020009000500100005000500050009001100020001000100050009000400010001007F00020009000500100005000500050009001100020008000A00050009000400010001007F

Vol-	MOD_SIG	18 00027100FF6200000012000000480101A805EC06FE080F09210A320B430C550D660E780F89109B11AC12BD13CF14E015F2659000020009000500100005000500050009001100020010000100050009000500010001007F00020009000500100005000500050009001100020007000A00050009000500010001007F

ALT	MOD_SIG	18 00027100FF6200000012000000480101A805EC06FE080F09210A320B430C550D660E780F89109B11AC12BD13CF14E015F2659000020009000500100005000500050009001100020006000100050006000200010001007F0002000900050010000500050005000900110002000D000A00050006000200010001007F

Option	MOD_SIG	18 00027100FF6200000012000000480101A805EC06FE080F09210A320B430C550D660E780F89109B11AC12BD13CF14E015F2659000020009000500100005000500050009001100020005000100050006000300010001007F0002000900050010000500050005000900110002000C000A00050006000300010001007F

Mute	MOD_SIG	18 00027100FF6200000012000000480101A805EC06FE080F09210A320B430C550D660E780F89109B11AC12BD13CF14E015F2659000020009000500100005000500050009001100020010000100050001000D00010001007F00020009000500100005000500050009001100020007000A00050001000D00010001007F

1	MOD_SIG	18 00027100FF6200000012000000480101A805EC06FE080F09210A320B430C550D660E780F89109B11AC12BD13CF14E015F265900002000900050010000500050005000900110002000B000100050001000200010001007F00020009000500100005000500050009001100020002000A00050001000200010001007F

2	MOD_SIG	18 00027100FF6200000012000000480101A805EC06FE080F09210A320B430C550D660E780F89109B11AC12BD13CF14E015F265900002000900050010000500050005000900110002000A000100050001000300010001007F00020009000500100005000500050009001100020001000A00050001000300010001007F

3	MOD_SIG	18 00027100FF6200000012000000480101A805EC06FE080F09210A320B430C550D660E780F89109B11AC12BD13CF14E015F2659000020009000500100005000500050009001100020009000100050001000400010001007F00020009000500100005000500050009001100020010000A00050001000400010001007F

4	MOD_SIG	18 00027100FF6200000012000000480101A805EC06FE080F09210A320B430C550D660E780F89109B11AC12BD13CF14E015F2659000020009000500100005000500050009001100020008000100050001000500010001007F0002000900050010000500050005000900110002000F000A00050001000500010001007F

5	MOD_SIG	18 00027100FF6200000012000000480101A805EC06FE080F09210A320B430C550D660E780F89109B11AC12BD13CF14E015F2659000020009000500100005000500050009001100020007000100050001000600010001007F0002000900050010000500050005000900110002000E000A00050001000600010001007F

6	MOD_SIG	18 00027100FF6200000012000000480101A805EC06FE080F09210A320B430C550D660E780F89109B11AC12BD13CF14E015F2659000020009000500100005000500050009001100020006000100050001000700010001007F0002000900050010000500050005000900110002000D000A00050001000700010001007F

7	MOD_SIG	18 00027100FF6200000012000000480101A805EC06FE080F09210A320B430C550D660E780F89109B11AC12BD13CF14E015F2659000020009000500100005000500050009001100020005000100050001000800010001007F0002000900050010000500050005000900110002000C000A00050001000800010001007F

8	MOD_SIG	18 00027100FF6200000012000000480101A805EC06FE080F09210A320B430C550D660E780F89109B11AC12BD13CF14E015F2659000020009000500100005000500050009001100020004000100050001000900010001007F0002000900050010000500050005000900110002000B000A00050001000900010001007F

9	MOD_SIG	18 00027100FF6200000012000000480101A805EC06FE080F09210A320B430C550D660E780F89109B11AC12BD13CF14E015F2659000020009000500100005000500050009001100020003000100050001000A00010001007F0002000900050010000500050005000900110002000A000A00050001000A00010001007F

0	MOD_SIG	18 00027100FF6200000012000000480101A805EC06FE080F09210A320B430C550D660E780F89109B11AC12BD13CF14E015F265900002000900050010000500050005000900110002000C000100050001000100010001007F00020009000500100005000500050009001100020003000A00050001000100010001007F

ARC	MOD_SIG	18 00027100FF6200000012000000480101A805EC06FE080F09210A320B430C550D660E780F89109B11AC12BD13CF14E015F265900002000900050010000500050005000900110002000D000100050006000B00010001007F00020009000500100005000500050009001100020004000A00050006000B00010001007F

Help	MOD_SIG	18 00027100FF6200000012000000480101A805EC06FE080F09210A320B430C550D660E780F89109B11AC12BD13CF14E015F2659000020009000500100005000500050009001100020004000100050006000400010001007F0002000900050010000500050005000900110002000B000A00050006000400010001007F

Info	MOD_SIG	18 00027100FF6200000012000000480101A805EC06FE080F09210A320B430C550D660E780F89109B11AC12BD13CF14E015F2659000020009000500100005000500050009001100020005000100050009001000010001007F0002000900050010000500050005000900110002000C000A00050009001000010001007F
