Device hd_zapper
XMPProtocol False

Empty Database


Power	MOD_SIG	16 000132BBFF600000000400000088003D831F5803BD0BCA000000000000000000000000000000000000000000000000000102020203020302020203020302030203020302020202020302020202020302030202020202020203020302030202020202030203020302020202020202020202027F

Channel+	MOD_SIG	16 000132B7FF600000000400000088003D851F5A03BD0BCD000000000000000000000000000000000000000000000000000102020203020302020203020302030203020302020202020302020203020202020202020302020202020302020203020302030202020302030202020202020202027F

Channel-	MOD_SIG	16 000132B7FF5F0000000400000088003D851F5803BF0BCC000000000000000000000000000000000000000000000000000102020203020302020203020302030203020302020202020302020203020202020202020302020203020302020203020302030202020302020202020202020202027F

Vol-	MOD_SIG	16 000132B3FF600000000400000088003D861F5A03BC0BCD000000000000000000000000000000000000000000000000000102020203020302020203020302030203020302020202020302020203020202020202020202030203020302020203020302030203020202020202020202020202027F

Vol+	MOD_SIG	16 000132B2FF600000000400000088003D861F5A03BD0BCD000000000000000000000000000000000000000000000000000102020203020302020203020302030203020302020202020302020203020202020202020202030202020302020203020302030203020202030202020202020202027F

Mute	MOD_SIG	16 000132B7FF600000000400000088003D831F5A03BD0BC7000000000000000000000000000000000000000000000000000102020203020302020203020302030203020302020202020302020203020202030202020202020203020302020203020202030203020302020202020202020202027F

0	MOD_SIG	16 000132BCFF600000000400000088003D831F5803BF0BC7000000000000000000000000000000000000000000000000000102020203020302020203020302030203020302020202020302020202020202020202020202020202020302030203020302030203020302030202020202020202027F

9	MOD_SIG	16 000132BBFF600000000400000088003D851F5803BB0BC7000000000000000000000000000000000000000000000000000102020203020302020203020302030203020302020202020302020202020202020203020202020203020302030203020302020203020302020202020202020202027F

8	MOD_SIG	16 000132BBFF600000000400000088003D871F5803BE0BD0000000000000000000000000000000000000000000000000000102020203020302020203020302030203020302020202020302020202020202020203020202020202020302030203020302020203020302030202020202020202027F

7	MOD_SIG	16 000132BCFF600000000400000088003D8A1F5A03BC0BC7000000000000000000000000000000000000000000000000000102020203020302020203020302030203020302020202020302020202020202020202020302030203020302030203020302030202020202020202020202020202027F

4	MOD_SIG	16 000132BFFF600000000400000088003D8B1F5A03BD0BCD000000000000000000000000000000000000000000000000000102020203020302020203020302030203020302020202020302020202020202020202020302020202020302030203020302030202020302030202020202020202027F

5	MOD_SIG	16 00000000FF5F0000000400000044003D871F5703C00BC7000000000000000000000000000000000000000000000000000102020203020302020203020302030203020302020202020302020202020202020202020302020203020302030203020302030202020302020202020202020202027F

6	MOD_SIG	16 000132BBFF600000000400000088003D851F5803C20BC5000000000000000000000000000000000000000000000000000102020203020302020203020302030203020302020202020302020202020202020202020302030202020302030203020302030202020202030202020202020202027F

3	MOD_SIG	16 000132BBFF600000000400000088003D871F5A03BC0BCB000000000000000000000000000000000000000000000000000102020203020302020203020302030203020302020202020302020202020202020202020202030203020302030203020302030203020202020202020202020202027F

2	MOD_SIG	16 000132C0FF600000000400000088003D831F5A03BB0BCD000000000000000000000000000000000000000000000000000102020203020302020203020302030203020302020202020302020202020202020202020202030202020302030203020302030203020202030202020202020202027F

1	MOD_SIG	16 000132BBFF5F0000000400000088003D841F5A03C00BCC000000000000000000000000000000000000000000000000000102020203020302020203020302030203020302020202020302020202020202020202020202020203020302030203020302030203020302020202020202020202027F

Backup	MOD_SIG	16 000132B7FF600000000400000088003D851F5A03C00BC7000000000000000000000000000000000000000000000000000102020203020302020203020302030203020302020202020302020202020302030202020302020202020302030202020202030202020302030202020202020202027F

TV_Guide	MOD_SIG	16 000132BCFF5F0000000400000088003D821F5A03BC0BCD000000000000000000000000000000000000000000000000000102020203020302020203020302030203020302020202020302020202020302030202020302020203020302030202020202030202020302020202020202020202027F

Info	MOD_SIG	16 000132B7FF600000000400000088003D821F5A03BD0BC7000000000000000000000000000000000000000000000000000102020203020302020203020302030203020302020202020302020202020302030202020302030203020302030202020202030202020202020202020202020202027F

Menu	MOD_SIG	16 000132C0FF600000000400000088003D821F5A03BC0BCD000000000000000000000000000000000000000000000000000102020203020302020203020302030203020302020202020302020203020202020203020302020202020302020203020302020202020302030202020202020202027F

Ok	MOD_SIG	16 000132B7FF600000000400000088003D871F5A03BD0BCB000000000000000000000000000000000000000000000000000102020203020302020203020302030203020302020202020302020202020302030203020202020203020302030202020202020203020302020202020202020202027F

ALT	MOD_SIG	16 000132BBFF600000000400000088013D851F5803BD0BCA000000000000000000000000000000000000000000000000000102020203020302020203020302030203020302020202020302020202020302030203020302030203020302030202020202020202020202020202020202020202027F

Option	MOD_SIG	16 000132B7FF600000000400000088003D871F5A03C30BCA000000000000000000000000000000000000000000000000000102020203020302020203020302030203020302020202020302020203020202020203020302030203020302020203020302020202020202020202020202020202027F

Help	MOD_SIG	16 000132BBFF600000000400000088003D851F5A03C00BCD000000000000000000000000000000000000000000000000000102020203020302020203020302030203020302020202020302020203020302030202020302030203020302020202020202030202020202020202020202020202027F

Search	MOD_SIG	16 000132C0FF600000000400000088003D7F1F5A03C20BD1000000000000000000000000000000000000000000000000000102020203020302020203020302030203020302020202020302020202020302030202020202030203020302030202020202030203020202020202020202020202027F

ARC	MOD_SIG	16 00000000FF600000000400000044003D851F5703BE0BCB000000000000000000000000000000000000000000000000000102020203020302020203020302030203020302020202020302020203020202020203020302020203020302020203020302020202020302020202020202020202027F

Exit	MOD_SIG	16 000132B7FF600000000400000088003D801F5803C00BCC000000000000000000000000000000000000000000000000000102020203020302020203020302030203020302020202020302020203020202020202020302030202020302020203020302030202020202030202020202020202027F

TV	MOD_SIG	16 000132B7FF600000000400000088003D801F5803C00BCC000000000000000000000000000000000000000000000000000102020203020302020203020302030203020302020202020302020203020202020202020302030202020302020203020302030202020202030202020202020202027F

Profile	MOD_SIG	16 000132BCFF600000000400000088003D801F5A03BC0BCD000000000000000000000000000000000000000000000000000102020203020302020203020302030203020302020202020302020202020302030202020202030202020302030202020202030203020202030202020202020202027F

Left	MOD_SIG	16 000132C0FF5F0000000400000088003D851F5803BF0BD0000000000000000000000000000000000000000000000000000102020203020302020203020302030203020302020202020302020202020302030203020202020202020302030202020202020203020302030202020202020202027F

Right	MOD_SIG	16 000132BBFF600000000400000088003D871F5803BF0BCC000000000000000000000000000000000000000000000000000102020203020302020203020302030203020302020202020302020202020302030203020202030202020302030202020202020203020202030202020202020202027F

Up	MOD_SIG	16 000132C0FF600000000400000088003D8C1F5A03BC0BCD000000000000000000000000000000000000000000000000000102020203020302020203020302030203020302020202020302020202020302030202020302030202020302030202020202030202020202030202020202020202027F

Down	MOD_SIG	16 000132BBFF600000000400000088003D841F5A03BC0BCD000000000000000000000000000000000000000000000000000102020203020302020203020302030203020302020202020302020202020302030203020302020202020302030202020202020202020302030202020202020202027F
