Device Zapper_Green
XMPProtocol False

Empty Database


Power	MOD_SIG		16    000155A3FF5F0000000800000048010320011B0233047E050C05AB063C53FF0000000000000000000000000000000000000100010201030104010501060102010700000100010201040104010501060102017F00000106010301020103010201030104010700000105010301000103010201030104017F
audio	MOD_SIG		16    0001555BFF5F000000090000004801032702C00118063A04810233051553FF05A2000000000000000000000000000000010203020402050204020502040206020700010208020402010204020502040206027F00000203020502010204020402040206020700000208020102000204020402040206027F


