Device 720
XMPProtocol False

Empty Database


tv	16 0002BF1AFF5900000002000000180006F20DE40000000000000000000000000000000000000000000000000000000000000000000000000100000000010101000000000000007F

