Device 720i
XMPProtocol False

Empty Database


Power	DMOD_SIG	signal1	16 0002C60CFF5900000003000000300106F20DE406F2000000000000000000000000000000000000000000000000000000000000000000000100000000000000000100000100007F00000002000000000100000000000000000100000100007F
Power	DMOD_SIG	signal2	16 0002C60CFF59000000030000002C0106F20DE40DE400000000000000000000000000000000000000000000000000000000010200000100000000000000000100000100007F0000010200000100000000000000000100000100007F

1	DMOD_SIG	signal1	16 0002BF1AFF5900000003000000340106F20DE406F20000000000000000000000000000000000000000000000000000000000000000000001000000000000000000000000000001007F000000020000000001000000000000000000000000000001007F
1	DMOD_SIG	signal2	16 0002BF1AFF5900000003000000300106F20DE40DE4000000000000000000000000000000000000000000000000000000000102000001000000000000000000000000000001007F00000102000001000000000000000000000000000001007F

2	DMOD_SIG	signal1	16 0002C60CFF5900000003000000300106F20DE406F2000000000000000000000000000000000000000000000000000000000000000000000100000000000000000000000001017F00000002000000000100000000000000000000000001017F
2	DMOD_SIG	signal2	16 0002C60CFF59000000030000002C0106F20DE40DE400000000000000000000000000000000000000000000000000000000010200000100000000000000000000000001017F0000010200000100000000000000000000000001017F

3	DMOD_SIG	signal1	16 0002BF1AFF5900000003000000340106F20DE406F20000000000000000000000000000000000000000000000000000000000000000000001000000000000000000000000010000007F000000020000000001000000000000000000000000010000007F
3	DMOD_SIG	signal2	16 0002BF1AFF5900000003000000300106F20DE40DE4000000000000000000000000000000000000000000000000000000000102000001000000000000000000000000010000007F00000102000001000000000000000000000000010000007F

4	DMOD_SIG	signal1	16 0002C60CFF5900000003000000300106F20DE406F2000000000000000000000000000000000000000000000000000000000000000000000100000000000000000000010100007F00000002000000000100000000000000000000010100007F
4	DMOD_SIG	signal2	16 0002C60CFF59000000030000002C0106F20DE40DE400000000000000000000000000000000000000000000000000000000010200000100000000000000000000010100007F0000010200000100000000000000000000010100007F

5	DMOD_SIG	signal1	16 0002BF1AFF5900000003000000300106F20DE406F2000000000000000000000000000000000000000000000000000000000000000000000100000000000000000000010101007F00000002000000000100000000000000000000010101007F
5	DMOD_SIG	signal2	16 0002BF1AFF59000000030000002C0106F20DE40DE400000000000000000000000000000000000000000000000000000000010200000100000000000000000000010101007F0000010200000100000000000000000000010101007F

6	DMOD_SIG	signal1	16 0002C60CFF5900000002000000180006F20DE40000000000000000000000000000000000000000000000000000000000000000000000000100000000000000000000010000017F
6	DMOD_SIG	signal2	16 0002C60CFF59000000030000002C0106F20DE40DE400000000000000000000000000000000000000000000000000000000010200000100000000000000000000010000017F0000010200000100000000000000000000010000017F

7	DMOD_SIG	signal1	16 0002BF1AFF5900000003000000340106F20DE406F20000000000000000000000000000000000000000000000000000000000000000000001000000000000000000000100000000007F000000020000000001000000000000000000000100000000007F
7	DMOD_SIG	signal2	16 0002BF1AFF5900000003000000300106F20DE40DE4000000000000000000000000000000000000000000000000000000000102000001000000000000000000000100000000007F00000102000001000000000000000000000100000000007F

8	DMOD_SIG	signal1	16 0002C60CFF5900000002000000180006F20DE40000000000000000000000000000000000000000000000000000000000000000000000000100000000000000000101000000007F
8	DMOD_SIG	signal2	16 0002C60CFF59000000030000002C0106F20DE40DE400000000000000000000000000000000000000000000000000000000010200000100000000000000000101000000007F0000010200000100000000000000000101000000007F

9	DMOD_SIG	signal1	16 0002BF1AFF5900000003000000300106F20DE406F2000000000000000000000000000000000000000000000000000000000000000000000100000000000000000101000001007F00000002000000000100000000000000000101000001007F
9	DMOD_SIG	signal2	16 0002BF1AFF59000000030000002C0106F20DE40DE400000000000000000000000000000000000000000000000000000000010200000100000000000000000101000001007F0000010200000100000000000000000101000001007F

0	DMOD_SIG	signal1	16 0002C60CFF5900000003000000340106F20DE406F20000000000000000000000000000000000000000000000000000000000000000000001000000000000000000000000000000007F000000020000000001000000000000000000000000000000007F
0	DMOD_SIG	signal2	16 0002C60CFF5900000003000000300106F20DE40DE4000000000000000000000000000000000000000000000000000000000102000001000000000000000000000000000000007F00000102000001000000000000000000000000000000007F

Ok	DMOD_SIG	signal1	16 0002C60CFF59000000030000002C0106F20DE406F200000000000000000000000000000000000000000000000000000000000000000000010000000001010000000001017F0000000200000000010000000001010000000001017F
Ok	DMOD_SIG	signal2	16 0002C60CFF5900000003000000280106F20DE40DE40000000000000000000000000000000000000000000000000000000001020000010000000001010000000001017F000001020000010000000001010000000001017F

Up	DMOD_SIG	signal1	16 0002C60CFF5900000002000000160006F20DE4000000000000000000000000000000000000000000000000000000000000000000000000010000000000000101000001017F
Up	DMOD_SIG	signal2	16 0002C60CFF5900000003000000140006F20DE40DE40000000000000000000000000000000000000000000000000000000001020000010000000000000101000001017F

Right	DMOD_SIG	signal1	16 0002C60CFF5900000002000000180006F20DE40000000000000000000000000000000000000000000000000000000000000000000000000100000000000001000000000000017F
Right	DMOD_SIG	signal2	16 0002C60CFF59000000030000002C0106F20DE40DE400000000000000000000000000000000000000000000000000000000010200000100000000000001000000000000017F0000010200000100000000000001000000000000017F

Down	DMOD_SIG	signal1	16 0002BF1AFF5900000002000000180006F20DE40000000000000000000000000000000000000000000000000000000000000000000000000100000000000001010000010000007F
Down	DMOD_SIG	signal2	16 0002BF1AFF5900000003000000160006F20DE40DE400000000000000000000000000000000000000000000000000000000010200000100000000000001010000010000007F

Left	DMOD_SIG	signal1	16 0002BF1AFF5900000002000000180006F20DE40000000000000000000000000000000000000000000000000000000000000000000000000100000000000001000000000101007F
Left	DMOD_SIG	signal2	16 0002BF1AFF59000000030000002C0106F20DE40DE400000000000000000000000000000000000000000000000000000000010200000100000000000001000000000101007F0000010200000100000000000001000000000101007F

Channel+	DMOD_SIG	signal1	16 0002C60CFF5900000003000000300106F20DE406F2000000000000000000000000000000000000000000000000000000000000000000000100000000010100000000000000007F00000002000000000100000000010100000000000000007F
Channel+	DMOD_SIG	signal2	16 0002C60CFF59000000030000002C0106F20DE40DE400000000000000000000000000000000000000000000000000000000010200000100000000010100000000000000007F0000010200000100000000010100000000000000007F

Channel-	DMOD_SIG	signal1	16 0002BF1AFF5900000003000000300106F20DE406F2000000000000000000000000000000000000000000000000000000000000000000000100000000010100000000000001007F00000002000000000100000000010100000000000001007F
Channel-	DMOD_SIG	signal2	16 0002BF1AFF59000000030000002C0106F20DE40DE400000000000000000000000000000000000000000000000000000000010200000100000000010100000000000001007F0000010200000100000000010100000000000001007F

Vol+	DMOD_SIG	signal1	16 0002C60CFF5900000002000000180006F20DE40000000000000000000000000000000000000000000000000000000000000000000000000100000000000001010000000000007F
Vol+	DMOD_SIG	signal2	16 0002C60CFF59000000030000002C0106F20DE40DE400000000000000000000000000000000000000000000000000000000010200000100000000000001010000000000007F0000010200000100000000000001010000000000007F

Vol-	DMOD_SIG	signal1	16 0002BF1AFF5900000003000000300106F20DE406F2000000000000000000000000000000000000000000000000000000000000000000000100000000000001010000000001007F00000002000000000100000000000001010000000001007F
Vol-	DMOD_SIG	signal2	16 0002BF1AFF59000000030000002C0106F20DE40DE400000000000000000000000000000000000000000000000000000000010200000100000000000001010000000001007F0000010200000100000000000001010000000001007F

Mute	DMOD_SIG	signal1	16 0002BF1AFF5900000003000000300106F20DE406F2000000000000000000000000000000000000000000000000000000000000000000000100000000000000000100000101007F00000002000000000100000000000000000100000101007F
Mute	DMOD_SIG	signal2	16 0002BF1AFF59000000030000002C0106F20DE40DE400000000000000000000000000000000000000000000000000000000010200000100000000000000000100000101007F0000010200000100000000000000000100000101007F

TV_Guide	DMOD_SIG	signal1	16 0002BF1AFF5900000002000000160006F20DE4000000000000000000000000000000000000000000000000000000000000000000000000010000000001000001010101007F
TV_Guide	DMOD_SIG	signal2	16 0002BF1AFF5900000003000000280106F20DE40DE40000000000000000000000000000000000000000000000000000000001020000010000000001000001010101007F000001020000010000000001000001010101007F

Info	DMOD_SIG	signal1	16 0002BF1AFF5900000002000000160006F20DE4000000000000000000000000000000000000000000000000000000000000000000000000010000000001010100000101007F
Info	DMOD_SIG	signal2	16 0002BF1AFF5900000003000000280106F20DE40DE40000000000000000000000000000000000000000000000000000000001020000010000000001010100000101007F000001020000010000000001010100000101007F

Menu	DMOD_SIG	signal1	16 0002C60CFF5900000002000000180006F20DE40000000000000000000000000000000000000000000000000000000000000000000000000100000000000001000000000100007F
Menu	DMOD_SIG	signal2	16 0002C60CFF59000000030000002C0106F20DE40DE400000000000000000000000000000000000000000000000000000000010200000100000000000001000000000100007F0000010200000100000000000001000000000100007F

sound	DMOD_SIG	signal1	16 0002BF1AFF5900000002000000160006F20DE4000000000000000000000000000000000000000000000000000000000000000000000000010000000001010000010101007F
sound	DMOD_SIG	signal2	16 0002BF1AFF5900000003000000280106F20DE40DE40000000000000000000000000000000000000000000000000000000001020000010000000001010000010101007F000001020000010000000001010000010101007F

exit	DMOD_SIG	signal1	16 0002BF1AFF5900000003000000300106F20DE406F2000000000000000000000000000000000000000000000000000000000000000000000100000000010000010000000001007F00000002000000000100000000010000010000000001007F
exit	DMOD_SIG	signal2	16 0002BF1AFF5900000003000000160006F20DE40DE400000000000000000000000000000000000000000000000000000000010200000100000000010000010000000001007F

subtitles	DMOD_SIG	signal1	16 0002C60CFF5900000002000000160006F20DE4000000000000000000000000000000000000000000000000000000000000000000000000010000000001010000010100007F
subtitles	DMOD_SIG	signal2	16 0002C60CFF5900000003000000140006F20DE40DE40000000000000000000000000000000000000000000000000000000001020000010000000001010000010100007F

tv	DMOD_SIG	signal1	16 0002BF1AFF5900000002000000180006F20DE40000000000000000000000000000000000000000000000000000000000000000000000000100000000010101000000000000007F
tv	DMOD_SIG	signal2	16 0002BF1AFF5900000003000000160006F20DE40DE400000000000000000000000000000000000000000000000000000000010200000100000000010101000000000000007F

red	DMOD_SIG	signal1	16 0002C60CFF59000000030000002C0106F20DE406F200000000000000000000000000000000000000000000000000000000000000000000010000000001010100000100007F0000000200000000010000000001010100000100007F
red	DMOD_SIG	signal2	16 0002C60CFF5900000003000000280106F20DE40DE40000000000000000000000000000000000000000000000000000000001020000010000000001010100000100007F000001020000010000000001010100000100007F

green	DMOD_SIG	signal1	16 0002BF1AFF5900000002000000160006F20DE4000000000000000000000000000000000000000000000000000000000000000000000000010000000001010101010000007F
green	DMOD_SIG	signal2	16 0002BF1AFF5900000003000000280106F20DE40DE40000000000000000000000000000000000000000000000000000000001020000010000000001010101010000007F000001020000010000000001010101010000007F

yellow	DMOD_SIG	signal1	16 0002C60CFF5900000003000000280106F20DE406F20000000000000000000000000000000000000000000000000000000000000000000001000000000101010101017F000000020000000001000000000101010101017F
yellow	DMOD_SIG	signal2	16 0002C60CFF5900000003000000240106F20DE40DE4000000000000000000000000000000000000000000000000000000000102000001000000000101010101017F00000102000001000000000101010101017F

blue	DMOD_SIG	signal1	16 0002C60CFF59000000030000002C0106F20DE406F200000000000000000000000000000000000000000000000000000000000000000000010000000001010100000000017F0000000200000000010000000001010100000000017F
blue	DMOD_SIG	signal2	16 0002C60CFF5900000003000000280106F20DE40DE40000000000000000000000000000000000000000000000000000000001020000010000000001010100000000017F000001020000010000000001010100000000017F
